hw1/hw1_3/dump.vcd
$date
	Mon Sep 21 21:38:14 2020
$end
$version
	ModelSim Version 10.7c
$end
$timescale
	1ns
$end

$scope module seqdec_42_bench $end
$var reg 1 ! InA $end
$var wire 1 " Clk $end
$var wire 1 # Reset $end
$var wire 1 $ Out $end
$var reg 128 % sequenc [127:0] $end
$var integer 32 & k $end
$var reg 8 ' seq [7:0] $end
$var reg 8 ( seqp1 [7:0] $end
$var wire 1 ) err $end

$scope module DUT $end
$var wire 1 * InA $end
$var wire 1 " Clk $end
$var wire 1 # Reset $end
$var wire 1 $ Out $end
$var wire 1 + next_state [7] $end
$var wire 1 , next_state [6] $end
$var wire 1 - next_state [5] $end
$var wire 1 . next_state [4] $end
$var wire 1 / next_state [3] $end
$var wire 1 0 next_state [2] $end
$var wire 1 1 next_state [1] $end
$var wire 1 2 next_state [0] $end
$var wire 1 3 curr_state [7] $end
$var wire 1 4 curr_state [6] $end
$var wire 1 5 curr_state [5] $end
$var wire 1 6 curr_state [4] $end
$var wire 1 7 curr_state [3] $end
$var wire 1 8 curr_state [2] $end
$var wire 1 9 curr_state [1] $end
$var wire 1 : curr_state [0] $end

$scope module state $end
$var wire 1 3 q [7] $end
$var wire 1 4 q [6] $end
$var wire 1 5 q [5] $end
$var wire 1 6 q [4] $end
$var wire 1 7 q [3] $end
$var wire 1 8 q [2] $end
$var wire 1 9 q [1] $end
$var wire 1 : q [0] $end
$var wire 1 + d [7] $end
$var wire 1 , d [6] $end
$var wire 1 - d [5] $end
$var wire 1 . d [4] $end
$var wire 1 / d [3] $end
$var wire 1 0 d [2] $end
$var wire 1 1 d [1] $end
$var wire 1 2 d [0] $end
$var wire 1 " clk $end
$var wire 1 # rst $end

$scope module ff0[7] $end
$var wire 1 3 q $end
$var wire 1 + d $end
$var wire 1 " clk $end
$var wire 1 # rst $end
$var reg 1 ; state $end
$upscope $end

$scope module ff0[6] $end
$var wire 1 4 q $end
$var wire 1 , d $end
$var wire 1 " clk $end
$var wire 1 # rst $end
$var reg 1 < state $end
$upscope $end

$scope module ff0[5] $end
$var wire 1 5 q $end
$var wire 1 - d $end
$var wire 1 " clk $end
$var wire 1 # rst $end
$var reg 1 = state $end
$upscope $end

$scope module ff0[4] $end
$var wire 1 6 q $end
$var wire 1 . d $end
$var wire 1 " clk $end
$var wire 1 # rst $end
$var reg 1 > state $end
$upscope $end

$scope module ff0[3] $end
$var wire 1 7 q $end
$var wire 1 / d $end
$var wire 1 " clk $end
$var wire 1 # rst $end
$var reg 1 ? state $end
$upscope $end

$scope module ff0[2] $end
$var wire 1 8 q $end
$var wire 1 0 d $end
$var wire 1 " clk $end
$var wire 1 # rst $end
$var reg 1 @ state $end
$upscope $end

$scope module ff0[1] $end
$var wire 1 9 q $end
$var wire 1 1 d $end
$var wire 1 " clk $end
$var wire 1 # rst $end
$var reg 1 A state $end
$upscope $end

$scope module ff0[0] $end
$var wire 1 : q $end
$var wire 1 2 d $end
$var wire 1 " clk $end
$var wire 1 # rst $end
$var reg 1 B state $end
$upscope $end
$upscope $end
$upscope $end

$scope module my_ckrst $end
$var reg 1 C clk $end
$var reg 1 D rst $end
$var wire 1 ) err $end
$var integer 32 E cycle_count $end
$upscope $end
$upscope $end
$enddefinitions $end
#0
$dumpvars
0!
b1010001000010100001010100101110010111001000010100001000101001101010011001010001010000010000101100101110100001001010011 %
b0 '
b0 (
0B
0A
0@
0?
0>
0=
0<
0;
1C
1D
b0 &
b1 E
1"
1#
x$
0)
02
x1
x0
x/
x.
x-
x,
x+
x:
x9
x8
x7
x6
x5
x4
x3
0*
$end
#1
03
04
05
06
07
08
09
0:
0$
01
00
0/
0.
0-
0,
0+
#50
0C
0"
#100
1C
1"
b10 E
#150
0C
0"
#200
1C
1"
b11 E
#201
0D
0#
#250
0C
0"
#300
1C
1"
b1 &
b100 E
#350
0C
0"
#400
1C
1"
b10 &
b101 E
#450
0C
0"
#500
1C
1"
b11 &
b110 E
#550
0C
0"
#600
1C
1"
b100 &
b111 E
#650
0C
0"
#700
1C
1"
b101 &
b1000 E
#750
0C
0"
#800
1C
1"
b110 &
b1001 E
#850
0C
0"
#900
1C
1"
b111 &
b1010 E
#950
0C
0"
#1000
1C
1"
b1000 &
b1011 E
#1050
0C
0"
#1100
1C
1"
b1001 &
b1100 E
#1150
0C
0"
#1200
1C
1"
b1010 &
b1101 E
#1250
0C
0"
#1300
1C
1"
1!
b1011 &
b1110 E
1*
12
b1 '
#1350
0C
0"
#1400
1C
1"
1B
0!
b1100 &
b1111 E
0*
02
b11 '
b10 '
b1 (
#1401
1:
11
#1450
0C
0"
#1500
1C
1"
0B
1A
1!
b1101 &
b10000 E
1*
12
b100 '
b101 '
b10 (
#1501
19
0:
01
10
#1550
0C
0"
#1600
1C
1"
1B
0A
1@
0!
b1110 &
b10001 E
0*
02
b1011 '
b1010 '
b101 (
#1601
18
09
1:
11
00
1/
#1650
0C
0"
#1700
1C
1"
0B
1A
0@
1?
b1111 &
b10010 E
b10100 '
b1010 (
#1701
17
08
19
0:
01
10
0/
1.
#1750
0C
0"
#1800
1C
1"
0A
1@
0?
1>
b10000 &
b10011 E
b101000 '
b10100 (
#1801
16
07
18
09
00
1/
0.
1-
#1850
0C
0"
#1900
1C
1"
0@
1?
0>
1=
1!
b10001 &
b10100 E
1*
12
b1010000 '
b1010001 '
b101000 (
#1901
15
06
17
08
0/
1.
0-
1,
#1950
0C
0"
#2000
1C
1"
1B
0?
1>
0=
1<
0!
b10010 &
b10101 E
0*
02
b10100011 '
b10100010 '
b1010001 (
#2001
14
05
16
07
1:
11
0.
1-
0,
1+
#2050
0C
0"
#2100
1C
1"
0B
1A
0>
1=
0<
1;
b10011 &
b10110 E
b1000100 '
b10100010 (
#2101
13
04
15
06
19
0:
01
10
0-
1,
0+
#2150
0C
0"
#2200
1C
1"
0A
1@
0=
1<
0;
b10100 &
b10111 E
b10001000 '
b1000100 (
#2201
03
14
05
18
09
00
1/
0,
1+
#2250
0C
0"
#2300
1C
1"
0@
1?
0<
1;
b10101 &
b11000 E
b10000 '
b10001000 (
#2301
13
04
17
08
0/
1.
0+
#2350
0C
0"
#2400
1C
1"
0?
1>
0;
1!
b10110 &
b11001 E
1*
12
b100000 '
b100001 '
b10000 (
#2401
03
16
07
0.
1-
#2450
0C
0"
#2500
1C
1"
1B
0>
1=
0!
b10111 &
b11010 E
0*
02
b1000011 '
b1000010 '
b100001 (
#2501
15
06
1:
11
0-
1,
#2550
0C
0"
#2600
1C
1"
0B
1A
0=
1<
1!
b11000 &
b11011 E
1*
12
b10000100 '
b10000101 '
b1000010 (
#2601
14
05
19
0:
01
10
0,
1+
1$
#2650
0C
0"
#2700
1C
1"
1B
0A
1@
0<
1;
0!
b11001 &
b11100 E
0*
02
b1011 '
b1010 '
b10000101 (
#2701
13
04
18
09
1:
0$
11
00
1/
0+
#2750
0C
0"
#2800
1C
1"
0B
1A
0@
1?
0;
b11010 &
b11101 E
b10100 '
b1010 (
#2801
03
17
08
19
0:
01
10
0/
1.
#2850
0C
0"
#2900
1C
1"
0A
1@
0?
1>
b11011 &
b11110 E
b101000 '
b10100 (
#2901
16
07
18
09
00
1/
0.
1-
#2950
0C
0"
#3000
1C
1"
0@
1?
0>
1=
b11100 &
b11111 E
b1010000 '
b101000 (
#3001
15
06
17
08
0/
1.
0-
1,
#3050
0C
0"
#3100
1C
1"
0?
1>
0=
1<
1!
b11101 &
b100000 E
1*
12
b10100000 '
b10100001 '
b1010000 (
#3101
14
05
16
07
0.
1-
0,
1+
#3150
0C
0"
#3200
1C
1"
1B
0>
1=
0<
1;
0!
b11110 &
b100001 E
0*
02
b1000011 '
b1000010 '
b10100001 (
#3201
13
04
15
06
1:
11
0-
1,
0+
#3250
0C
0"
#3300
1C
1"
0B
1A
0=
1<
0;
1!
b11111 &
b100010 E
1*
12
b10000100 '
b10000101 '
b1000010 (
#3301
03
14
05
19
0:
1$
01
10
0,
1+
#3350
0C
0"
#3400
1C
1"
1B
0A
1@
0<
1;
0!
b100000 &
b100011 E
0*
02
b1011 '
b1010 '
b10000101 (
#3401
13
04
18
09
1:
0$
11
00
1/
0+
#3450
0C
0"
#3500
1C
1"
0B
1A
0@
1?
0;
1!
b100001 &
b100100 E
1*
12
b10100 '
b10101 '
b1010 (
#3501
03
17
08
19
0:
01
10
0/
1.
#3550
0C
0"
#3600
1C
1"
1B
0A
1@
0?
1>
0!
b100010 &
b100101 E
0*
02
b101011 '
b101010 '
b10101 (
#3601
16
07
18
09
1:
11
00
1/
0.
1-
#3650
0C
0"
#3700
1C
1"
0B
1A
0@
1?
0>
1=
b100011 &
b100110 E
b1010100 '
b101010 (
#3701
15
06
17
08
19
0:
01
10
0/
1.
0-
1,
#3750
0C
0"
#3800
1C
1"
0A
1@
0?
1>
0=
1<
1!
b100100 &
b100111 E
1*
12
b10101000 '
b10101001 '
b1010100 (
#3801
14
05
16
07
18
09
00
1/
0.
1-
0,
1+
#3850
0C
0"
#3900
1C
1"
1B
0@
1?
0>
1=
0<
1;
0!
b100101 &
b101000 E
0*
02
b1010011 '
b1010010 '
b10101001 (
#3901
13
04
15
06
17
08
1:
11
0/
1.
0-
1,
0+
#3950
0C
0"
#4000
1C
1"
0B
1A
0?
1>
0=
1<
0;
1!
b100110 &
b101001 E
1*
12
b10100100 '
b10100101 '
b1010010 (
#4001
03
14
05
16
07
19
0:
01
10
0.
1-
0,
1+
#4050
0C
0"
#4100
1C
1"
1B
0A
1@
0>
1=
0<
1;
b100111 &
b101010 E
b1001011 '
b10100101 (
#4101
13
04
15
06
18
09
1:
11
00
1/
0-
1,
0+
#4150
0C
0"
#4200
1C
1"
1A
0@
1?
0=
1<
0;
b101000 &
b101011 E
b10010111 '
b1001011 (
#4201
03
14
05
17
08
19
10
0/
1.
0,
1+
#4250
0C
0"
#4300
1C
1"
1@
0?
1>
0<
1;
0!
b101001 &
b101100 E
0*
02
b101111 '
b101110 '
b10010111 (
#4301
13
04
16
07
18
1/
0.
1-
0+
#4350
0C
0"
#4400
1C
1"
0B
1?
0>
1=
0;
b101010 &
b101101 E
b1011100 '
b101110 (
#4401
03
15
06
17
0:
01
1.
0-
1,
#4450
0C
0"
#4500
1C
1"
0A
1>
0=
1<
1!
b101011 &
b101110 E
1*
12
b10111000 '
b10111001 '
b1011100 (
#4501
14
05
16
09
00
1-
0,
1+
#4550
0C
0"
#4600
1C
1"
1B
0@
1=
0<
1;
0!
b101100 &
b101111 E
0*
02
b1110011 '
b1110010 '
b10111001 (
#4601
13
04
15
08
1:
11
0/
1,
0+
#4650
0C
0"
#4700
1C
1"
0B
1A
0?
1<
0;
1!
b101101 &
b110000 E
1*
12
b11100100 '
b11100101 '
b1110010 (
#4701
03
14
07
19
0:
01
10
0.
1+
#4750
0C
0"
#4800
1C
1"
1B
0A
1@
0>
1;
b101110 &
b110001 E
b11001011 '
b11100101 (
#4801
13
06
18
09
1:
11
00
1/
0-
#4850
0C
0"
#4900
1C
1"
1A
0@
1?
0=
b101111 &
b110010 E
b10010111 '
b11001011 (
#4901
05
17
08
19
10
0/
1.
0,
#4950
0C
0"
#5000
1C
1"
1@
0?
1>
0<
0!
b110000 &
b110011 E
0*
02
b101111 '
b101110 '
b10010111 (
#5001
04
16
07
18
1/
0.
1-
0+
#5050
0C
0"
#5100
1C
1"
0B
1?
0>
1=
0;
b110001 &
b110100 E
b1011100 '
b101110 (
#5101
03
15
06
17
0:
01
1.
0-
1,
#5150
0C
0"
#5200
1C
1"
0A
1>
0=
1<
1!
b110010 &
b110101 E
1*
12
b10111000 '
b10111001 '
b1011100 (
#5201
14
05
16
09
00
1-
0,
1+
#5250
0C
0"
#5300
1C
1"
1B
0@
1=
0<
1;
0!
b110011 &
b110110 E
0*
02
b1110011 '
b1110010 '
b10111001 (
#5301
13
04
15
08
1:
11
0/
1,
0+
#5350
0C
0"
#5400
1C
1"
0B
1A
0?
1<
0;
b110100 &
b110111 E
b11100100 '
b1110010 (
#5401
03
14
07
19
0:
01
10
0.
1+
#5450
0C
0"
#5500
1C
1"
0A
1@
0>
1;
b110101 &
b111000 E
b11001000 '
b11100100 (
#5501
13
06
18
09
00
1/
0-
#5550
0C
0"
#5600
1C
1"
0@
1?
0=
b110110 &
b111001 E
b10010000 '
b11001000 (
#5601
05
17
08
0/
1.
0,
#5650
0C
0"
#5700
1C
1"
0?
1>
0<
1!
b110111 &
b111010 E
1*
12
b100000 '
b100001 '
b10010000 (
#5701
04
16
07
0.
1-
0+
#5750
0C
0"
#5800
1C
1"
1B
0>
1=
0;
0!
b111000 &
b111011 E
0*
02
b1000011 '
b1000010 '
b100001 (
#5801
03
15
06
1:
11
0-
1,
#5850
0C
0"
#5900
1C
1"
0B
1A
0=
1<
1!
b111001 &
b111100 E
1*
12
b10000100 '
b10000101 '
b1000010 (
#5901
14
05
19
0:
01
10
0,
1+
1$
#5950
0C
0"
#6000
1C
1"
1B
0A
1@
0<
1;
0!
b111010 &
b111101 E
0*
02
b1011 '
b1010 '
b10000101 (
#6001
13
04
18
09
1:
0$
11
00
1/
0+
#6050
0C
0"
#6100
1C
1"
0B
1A
0@
1?
0;
b111011 &
b111110 E
b10100 '
b1010 (
#6101
03
17
08
19
0:
01
10
0/
1.
#6150
0C
0"
#6200
1C
1"
0A
1@
0?
1>
b111100 &
b111111 E
b101000 '
b10100 (
#6201
16
07
18
09
00
1/
0.
1-
#6250
0C
0"
#6300
1C
1"
0@
1?
0>
1=
b111101 &
b1000000 E
b1010000 '
b101000 (
#6301
15
06
17
08
0/
1.
0-
1,
#6350
0C
0"
#6400
1C
1"
0?
1>
0=
1<
1!
b111110 &
b1000001 E
1*
12
b10100000 '
b10100001 '
b1010000 (
#6401
14
05
16
07
0.
1-
0,
1+
#6450
0C
0"
#6500
1C
1"
1B
0>
1=
0<
1;
0!
b111111 &
b1000010 E
0*
02
b1000011 '
b1000010 '
b10100001 (
#6501
13
04
15
06
1:
11
0-
1,
0+
#6550
0C
0"
#6600
1C
1"
0B
1A
0=
1<
0;
b1000000 &
b1000011 E
b10000100 '
b1000010 (
#6601
03
14
05
19
0:
1$
01
10
0,
1+
#6650
0C
0"
#6700
1C
1"
0A
1@
0<
1;
b1000001 &
b1000100 E
b1000 '
b10000100 (
#6701
13
04
18
09
0$
00
1/
0+
#6750
0C
0"
#6800
1C
1"
0@
1?
0;
1!
b1000010 &
b1000101 E
1*
12
b10000 '
b10001 '
b1000 (
#6801
03
17
08
0/
1.
#6850
0C
0"
#6900
1C
1"
1B
0?
1>
0!
b1000011 &
b1000110 E
0*
02
b100011 '
b100010 '
b10001 (
#6901
16
07
1:
11
0.
1-
#6950
0C
0"
#7000
1C
1"
0B
1A
0>
1=
1!
b1000100 &
b1000111 E
1*
12
b1000100 '
b1000101 '
b100010 (
#7001
15
06
19
0:
01
10
0-
1,
#7050
0C
0"
#7100
1C
1"
1B
0A
1@
0=
1<
0!
b1000101 &
b1001000 E
0*
02
b10001011 '
b10001010 '
b1000101 (
#7101
14
05
18
09
1:
11
00
1/
0,
1+
#7150
0C
0"
#7200
1C
1"
0B
1A
0@
1?
0<
1;
b1000110 &
b1001001 E
b10100 '
b10001010 (
#7201
13
04
17
08
19
0:
01
10
0/
1.
0+
#7250
0C
0"
#7300
1C
1"
0A
1@
0?
1>
0;
1!
b1000111 &
b1001010 E
1*
12
b101000 '
b101001 '
b10100 (
#7301
03
16
07
18
09
00
1/
0.
1-
#7350
0C
0"
#7400
1C
1"
1B
0@
1?
0>
1=
b1001000 &
b1001011 E
b1010011 '
b101001 (
#7401
15
06
17
08
1:
11
0/
1.
0-
1,
#7450
0C
0"
#7500
1C
1"
1A
0?
1>
0=
1<
0!
b1001001 &
b1001100 E
0*
02
b10100111 '
b10100110 '
b1010011 (
#7501
14
05
16
07
19
10
0.
1-
0,
1+
#7550
0C
0"
#7600
1C
1"
0B
1@
0>
1=
0<
1;
1!
b1001010 &
b1001101 E
1*
12
b1001100 '
b1001101 '
b10100110 (
#7601
13
04
15
06
18
0:
01
1/
0-
1,
0+
#7650
0C
0"
#7700
1C
1"
1B
0A
1?
0=
1<
0;
0!
b1001011 &
b1001110 E
0*
02
b10011011 '
b10011010 '
b1001101 (
#7701
03
14
05
17
09
1:
11
00
1.
0,
1+
#7750
0C
0"
#7800
1C
1"
0B
1A
0@
1>
0<
1;
1!
b1001100 &
b1001111 E
1*
12
b110100 '
b110101 '
b10011010 (
#7801
13
04
16
08
19
0:
01
10
0/
1-
0+
#7850
0C
0"
#7900
1C
1"
1B
0A
1@
0?
1=
0;
0!
b1001101 &
b1010000 E
0*
02
b1101011 '
b1101010 '
b110101 (
#7901
03
15
07
18
09
1:
11
00
1/
0.
1,
#7950
0C
0"
#8000
1C
1"
0B
1A
0@
1?
0>
1<
b1001110 &
b1010001 E
b11010100 '
b1101010 (
#8001
14
06
17
08
19
0:
01
10
0/
1.
0-
1+
#8050
0C
0"
#8100
1C
1"
0A
1@
0?
1>
0=
1;
1!
b1001111 &
b1010010 E
1*
12
b10101000 '
b10101001 '
b11010100 (
#8101
13
05
16
07
18
09
00
1/
0.
1-
0,
#8150
0C
0"
#8200
1C
1"
1B
0@
1?
0>
1=
0<
b1010000 &
b1010011 E
b1010011 '
b10101001 (
#8201
04
15
06
17
08
1:
11
0/
1.
0-
1,
0+
#8250
0C
0"
#8300
1C
1"
1A
0?
1>
0=
1<
0;
0!
b1010001 &
b1010100 E
0*
02
b10100111 '
b10100110 '
b1010011 (
#8301
03
14
05
16
07
19
10
0.
1-
0,
1+
#8350
0C
0"
#8400
1C
1"
0B
1@
0>
1=
0<
1;
b1010010 &
b1010101 E
b1001100 '
b10100110 (
#8401
13
04
15
06
18
0:
01
1/
0-
1,
0+
#8450
0C
0"
#8500
1C
1"
0A
1?
0=
1<
0;
1!
b1010011 &
b1010110 E
1*
12
b10011000 '
b10011001 '
b1001100 (
#8501
03
14
05
17
09
00
1.
0,
1+
#8550
0C
0"
#8600
1C
1"
1B
0@
1>
0<
1;
0!
b1010100 &
b1010111 E
0*
02
b110011 '
b110010 '
b10011001 (
#8601
13
04
16
08
1:
11
0/
1-
0+
#8650
0C
0"
#8700
1C
1"
0B
1A
0?
1=
0;
1!
b1010101 &
b1011000 E
1*
12
b1100100 '
b1100101 '
b110010 (
#8701
03
15
07
19
0:
01
10
0.
1,
#8750
0C
0"
#8800
1C
1"
1B
0A
1@
0>
1<
0!
b1010110 &
b1011001 E
0*
02
b11001011 '
b11001010 '
b1100101 (
#8801
14
06
18
09
1:
11
00
1/
0-
1+
#8850
0C
0"
#8900
1C
1"
0B
1A
0@
1?
0=
1;
b1010111 &
b1011010 E
b10010100 '
b11001010 (
#8901
13
05
17
08
19
0:
01
10
0/
1.
0,
#8950
0C
0"
#9000
1C
1"
0A
1@
0?
1>
0<
b1011000 &
b1011011 E
b101000 '
b10010100 (
#9001
04
16
07
18
09
00
1/
0.
1-
0+
#9050
0C
0"
#9100
1C
1"
0@
1?
0>
1=
0;
1!
b1011001 &
b1011100 E
1*
12
b1010000 '
b1010001 '
b101000 (
#9101
03
15
06
17
08
0/
1.
0-
1,
#9150
0C
0"
#9200
1C
1"
1B
0?
1>
0=
1<
0!
b1011010 &
b1011101 E
0*
02
b10100011 '
b10100010 '
b1010001 (
#9201
14
05
16
07
1:
11
0.
1-
0,
1+
#9250
0C
0"
#9300
1C
1"
0B
1A
0>
1=
0<
1;
1!
b1011011 &
b1011110 E
1*
12
b1000100 '
b1000101 '
b10100010 (
#9301
13
04
15
06
19
0:
01
10
0-
1,
0+
#9350
0C
0"
#9400
1C
1"
1B
0A
1@
0=
1<
0;
0!
b1011100 &
b1011111 E
0*
02
b10001011 '
b10001010 '
b1000101 (
#9401
03
14
05
18
09
1:
11
00
1/
0,
1+
#9450
0C
0"
#9500
1C
1"
0B
1A
0@
1?
0<
1;
b1011101 &
b1100000 E
b10100 '
b10001010 (
#9501
13
04
17
08
19
0:
01
10
0/
1.
0+
#9550
0C
0"
#9600
1C
1"
0A
1@
0?
1>
0;
b1011110 &
b1100001 E
b101000 '
b10100 (
#9601
03
16
07
18
09
00
1/
0.
1-
#9650
0C
0"
#9700
1C
1"
0@
1?
0>
1=
b1011111 &
b1100010 E
b1010000 '
b101000 (
#9701
15
06
17
08
0/
1.
0-
1,
#9750
0C
0"
#9800
1C
1"
0?
1>
0=
1<
b1100000 &
b1100011 E
b10100000 '
b1010000 (
#9801
14
05
16
07
0.
1-
0,
1+
#9850
0C
0"
#9900
1C
1"
0>
1=
0<
1;
1!
b1100001 &
b1100100 E
1*
12
b1000000 '
b1000001 '
b10100000 (
#9901
13
04
15
06
0-
1,
0+
#9950
0C
0"
#10000
1C
1"
1B
0=
1<
0;
0!
b1100010 &
b1100101 E
0*
02
b10000011 '
b10000010 '
b1000001 (
#10001
03
14
05
1:
11
0,
1+
#10050
0C
0"
#10100
1C
1"
0B
1A
0<
1;
b1100011 &
b1100110 E
b100 '
b10000010 (
#10101
13
04
19
0:
01
10
0+
#10150
0C
0"
#10200
1C
1"
0A
1@
0;
b1100100 &
b1100111 E
b1000 '
b100 (
#10201
03
18
09
00
1/
#10250
0C
0"
#10300
1C
1"
0@
1?
b1100101 &
b1101000 E
b10000 '
b1000 (
#10301
17
08
0/
1.
#10350
0C
0"
#10400
1C
1"
0?
1>
1!
b1100110 &
b1101001 E
1*
12
b100000 '
b100001 '
b10000 (
#10401
16
07
0.
1-
#10450
0C
0"
#10500
1C
1"
1B
0>
1=
0!
b1100111 &
b1101010 E
0*
02
b1000011 '
b1000010 '
b100001 (
#10501
15
06
1:
11
0-
1,
#10550
0C
0"
#10600
1C
1"
0B
1A
0=
1<
1!
b1101000 &
b1101011 E
1*
12
b10000100 '
b10000101 '
b1000010 (
#10601
14
05
19
0:
01
10
0,
1+
1$
#10650
0C
0"
#10700
1C
1"
1B
0A
1@
0<
1;
b1101001 &
b1101100 E
b1011 '
b10000101 (
#10701
13
04
18
09
1:
0$
11
00
1/
0+
#10750
0C
0"
#10800
1C
1"
1A
0@
1?
0;
0!
b1101010 &
b1101101 E
0*
02
b10111 '
b10110 '
b1011 (
#10801
03
17
08
19
10
0/
1.
#10850
0C
0"
#10900
1C
1"
0B
1@
0?
1>
b1101011 &
b1101110 E
b101100 '
b10110 (
#10901
16
07
18
0:
01
1/
0.
1-
#10950
0C
0"
#11000
1C
1"
0A
1?
0>
1=
1!
b1101100 &
b1101111 E
1*
12
b1011000 '
b1011001 '
b101100 (
#11001
15
06
17
09
00
1.
0-
1,
#11050
0C
0"
#11100
1C
1"
1B
0@
1>
0=
1<
0!
b1101101 &
b1110000 E
0*
02
b10110011 '
b10110010 '
b1011001 (
#11101
14
05
16
08
1:
11
0/
1-
0,
1+
#11150
0C
0"
#11200
1C
1"
0B
1A
0?
1=
0<
1;
1!
b1101110 &
b1110001 E
1*
12
b1100100 '
b1100101 '
b10110010 (
#11201
13
04
15
07
19
0:
01
10
0.
1,
0+
#11250
0C
0"
#11300
1C
1"
1B
0A
1@
0>
1<
0;
b1101111 &
b1110010 E
b11001011 '
b1100101 (
#11301
03
14
06
18
09
1:
11
00
1/
0-
1+
#11350
0C
0"
#11400
1C
1"
1A
0@
1?
0=
1;
b1110000 &
b1110011 E
b10010111 '
b11001011 (
#11401
13
05
17
08
19
10
0/
1.
0,
#11450
0C
0"
#11500
1C
1"
1@
0?
1>
0<
0!
b1110001 &
b1110100 E
0*
02
b101111 '
b101110 '
b10010111 (
#11501
04
16
07
18
1/
0.
1-
0+
#11550
0C
0"
#11600
1C
1"
0B
1?
0>
1=
0;
1!
b1110010 &
b1110101 E
1*
12
b1011100 '
b1011101 '
b101110 (
#11601
03
15
06
17
0:
01
1.
0-
1,
#11650
0C
0"
#11700
1C
1"
1B
0A
1>
0=
1<
0!
b1110011 &
b1110110 E
0*
02
b10111011 '
b10111010 '
b1011101 (
#11701
14
05
16
09
1:
11
00
1-
0,
1+
#11750
0C
0"
#11800
1C
1"
0B
1A
0@
1=
0<
1;
b1110100 &
b1110111 E
b1110100 '
b10111010 (
#11801
13
04
15
08
19
0:
01
10
0/
1,
0+
#11850
0C
0"
#11900
1C
1"
0A
1@
0?
1<
0;
b1110101 &
b1111000 E
b11101000 '
b1110100 (
#11901
03
14
07
18
09
00
1/
0.
1+
#11950
0C
0"
#12000
1C
1"
0@
1?
0>
1;
b1110110 &
b1111001 E
b11010000 '
b11101000 (
#12001
13
06
17
08
0/
1.
0-
#12050
0C
0"
#12100
1C
1"
0?
1>
0=
1!
b1110111 &
b1111010 E
1*
12
b10100000 '
b10100001 '
b11010000 (
#12101
05
16
07
0.
1-
0,
#12150
0C
0"
#12200
1C
1"
1B
0>
1=
0<
0!
b1111000 &
b1111011 E
0*
02
b1000011 '
b1000010 '
b10100001 (
#12201
04
15
06
1:
11
0-
1,
0+
#12250
0C
0"
#12300
1C
1"
0B
1A
0=
1<
0;
b1111001 &
b1111100 E
b10000100 '
b1000010 (
#12301
03
14
05
19
0:
1$
01
10
0,
1+
#12350
0C
0"
#12400
1C
1"
0A
1@
0<
1;
1!
b1111010 &
b1111101 E
1*
12
b1000 '
b1001 '
b10000100 (
#12401
13
04
18
09
0$
00
1/
0+
#12450
0C
0"
#12500
1C
1"
1B
0@
1?
0;
0!
b1111011 &
b1111110 E
0*
02
b10011 '
b10010 '
b1001 (
#12501
03
17
08
1:
11
0/
1.
#12550
0C
0"
#12600
1C
1"
0B
1A
0?
1>
1!
b1111100 &
b1111111 E
1*
12
b100100 '
b100101 '
b10010 (
#12601
16
07
19
0:
01
10
0.
1-
#12650
0C
0"
#12700
1C
1"
1B
0A
1@
0>
1=
0!
b1111101 &
b10000000 E
0*
02
b1001011 '
b1001010 '
b100101 (
#12701
15
06
18
09
1:
11
00
1/
0-
1,
#12750
0C
0"
#12800
1C
1"
0B
1A
0@
1?
0=
1<
b1111110 &
b10000001 E
b10010100 '
b1001010 (
#12801
14
05
17
08
19
0:
01
10
0/
1.
0,
1+
#12850
0C
0"
#12900
1C
1"
0A
1@
0?
1>
0<
1;
1!
b1111111 &
b10000010 E
1*
12
b101000 '
b101001 '
b10010100 (
#12901
13
04
16
07
18
09
00
1/
0.
1-
0+
#12950
0C
0"
#13000
1C
1"
1B
0@
1?
0>
1=
0;
b10000000 &
